[
    {
        "original": "ATARDECER 40X40-min.jpg",
        "new": "atardecer_40x40.jpg",
        "name": "Atardecer",
        "price": 7990
    },
    {
        "original": "ATARDECER-min.jpg",
        "new": "atardecer_70x40.jpg",
        "name": "Atardecer",
        "price": 8990
    },
    {
        "original": "CALIDO-min.jpg",
        "new": "calido_70x40.jpg",
        "name": "C\u00e1lido",
        "price": 8990
    },
    {
        "original": "CALIDO40X40-min.jpg",
        "new": "calido_40x40.jpg",
        "name": "C\u00e1lido",
        "price": 7990
    },
    {
        "original": "CLARO 40X40-min.jpg",
        "new": "claro_40x40.jpg",
        "name": "Claro",
        "price": 7990
    },
    {
        "original": "CLARP{}-min.jpg",
        "new": "claro_70x40.jpg",
        "name": "Claro",
        "price": 8990
    },
    {
        "original": "DALI 40X40-min.jpg",
        "new": "dali_40x40.jpg",
        "name": "Dal\u00ed",
        "price": 7990
    },
    {
        "original": "DALI-min.jpg",
        "new": "dali_70x40.jpg",
        "name": "Dal\u00ed",
        "price": 8990
    },
    {
        "original": "EL CAMPO 40X40-min.jpg",
        "new": "el_campo_40x40.jpg",
        "name": "El campo",
        "price": 7990
    },
    {
        "original": "EL CAMPO-min.jpg",
        "new": "el_campo_70x40.jpg",
        "name": "El campo",
        "price": 8990
    },
    {
        "original": "EL GRITO 40X40-min.jpg",
        "new": "el_grito_40x40.jpg",
        "name": "El grito",
        "price": 7990
    },
    {
        "original": "EL GRITO-min.jpg",
        "new": "el_grito_70x40.jpg",
        "name": "El grito",
        "price": 8990
    },
    {
        "original": "ESPACIO 40X40-min.jpg",
        "new": "espacio_40x40.jpg",
        "name": "Espacio",
        "price": 7990
    },
    {
        "original": "ESPACIO-min.jpg",
        "new": "espacio_70x40.jpg",
        "name": "Espacio",
        "price": 8990
    },
    {
        "original": "FORAJIDO 40X40-min.jpg",
        "new": "forajido_40x40.jpg",
        "name": "Forajido",
        "price": 7990
    },
    {
        "original": "FORAJIDO-min.jpg",
        "new": "forajido_70x40.jpg",
        "name": "Forajido",
        "price": 8990
    },
    {
        "original": "LA NOCHE 40X40-min.jpg",
        "new": "la_noche_40x40.jpg",
        "name": "La noche",
        "price": 7990
    },
    {
        "original": "LA NOCHE-min.jpg",
        "new": "la_noche_70x40.jpg",
        "name": "La noche",
        "price": 8990
    },
    {
        "original": "LA OLA 40X40-min.jpg",
        "new": "la_ola_40x40.jpg",
        "name": "La ola",
        "price": 7990
    },
    {
        "original": "LA OLA-min.jpg",
        "new": "la_ola_70x40.jpg",
        "name": "La ola",
        "price": 8990
    },
    {
        "original": "PORTAL 40X40-min.jpg",
        "new": "portal_40x40.jpg",
        "name": "Portal",
        "price": 7990
    },
    {
        "original": "PORTAL-min.jpg",
        "new": "portal_70x40.jpg",
        "name": "Portal",
        "price": 8990
    },
    {
        "original": "Peligro 40X40-min.jpg",
        "new": "peligro_40x40.jpg",
        "name": "Peligro",
        "price": 7990
    },
    {
        "original": "Peligro-min.jpg",
        "new": "peligro_70x40.jpg",
        "name": "Peligro",
        "price": 8990
    },
    {
        "original": "SADIAS 40X40-min.jpg",
        "new": "sadias_40x40.jpg",
        "name": "Sandias",
        "price": 7990
    },
    {
        "original": "SADIAS-min.jpg",
        "new": "sadias_70x40.jpg",
        "name": "Sandias",
        "price": 8990
    }
]